*** Life<Cell> 12x6 ***

Generation = 0, Population = 52.
000000
000000
0000--
0-0-00
-0-0-0
0--000
00-00-
00-000
-0--0-
-0--00
000-00
000000

Generation = 50, Population = 0.
......
.-....
......
......
......
......
......
......
......
......
......
......

Generation = 100, Population = 0.
......
.-....
......
......
......
......
......
......
......
......
......
......

Generation = 150, Population = 0.
......
.-....
......
......
......
......
......
......
......
......
......
......

Generation = 200, Population = 0.
......
.-....
......
......
......
......
......
......
......
......
......
......

Generation = 250, Population = 0.
......
.-....
......
......
......
......
......
......
......
......
......
......

Generation = 300, Population = 0.
......
.-....
......
......
......
......
......
......
......
......
......
......

Generation = 350, Population = 0.
......
.-....
......
......
......
......
......
......
......
......
......
......

Generation = 400, Population = 0.
......
.-....
......
......
......
......
......
......
......
......
......
......

*** Life<Cell> 12x6 ***

Generation = 0, Population = 54.
0-0000
000-00
00--00
000000
000000
-0-0-0
00000-
0-00--
0-00-0
0-----
000000
000000

Generation = 50, Population = 0.
...-..
......
......
......
......
......
......
......
......
......
......
......

Generation = 100, Population = 0.
...-..
......
......
......
......
......
......
......
......
......
......
......

Generation = 150, Population = 0.
...-..
......
......
......
......
......
......
......
......
......
......
......

Generation = 200, Population = 0.
...-..
......
......
......
......
......
......
......
......
......
......
......

Generation = 250, Population = 0.
...-..
......
......
......
......
......
......
......
......
......
......
......

Generation = 300, Population = 0.
...-..
......
......
......
......
......
......
......
......
......
......
......

Generation = 350, Population = 0.
...-..
......
......
......
......
......
......
......
......
......
......
......

Generation = 400, Population = 0.
...-..
......
......
......
......
......
......
......
......
......
......
......

*** Life<Cell> 12x6 ***

Generation = 0, Population = 53.
000000
000--0
0000--
000000
0000-0
00-000
00--0-
--0-00
0--00-
0000-0
-00000
0-0-00

Generation = 50, Population = 22.
-.***.
..*..*
....**
......
......
......
.*....
**....
*...**
**....
-***.*
..***.

Generation = 100, Population = 11.
-.***.
..*..*
....**
......
......
......
......
......
......
**....
**....
......

Generation = 150, Population = 11.
-.***.
..*..*
....**
......
......
......
......
......
......
**....
**....
......

Generation = 200, Population = 11.
-.***.
..*..*
....**
......
......
......
......
......
......
**....
**....
......

Generation = 250, Population = 11.
-.***.
..*..*
....**
......
......
......
......
......
......
**....
**....
......

Generation = 300, Population = 11.
-.***.
..*..*
....**
......
......
......
......
......
......
**....
**....
......

Generation = 350, Population = 11.
-.***.
..*..*
....**
......
......
......
......
......
......
**....
**....
......

Generation = 400, Population = 11.
-.***.
..*..*
....**
......
......
......
......
......
......
**....
**....
......

*** Life<Cell> 12x6 ***

Generation = 0, Population = 58.
0-0000
0-0000
00-000
0--000
000000
0000-0
0000-0
000000
-00-0-
00000-
00-000
-000-0

Generation = 50, Population = 3.
......
-.....
......
.....-
......
......
......
......
......
......
.**...
.-*...

Generation = 100, Population = 3.
......
-.....
......
.....-
......
......
......
......
......
......
.**...
.-*...

Generation = 150, Population = 3.
......
-.....
......
.....-
......
......
......
......
......
......
.**...
.-*...

Generation = 200, Population = 3.
......
-.....
......
.....-
......
......
......
......
......
......
.**...
.-*...

Generation = 250, Population = 3.
......
-.....
......
.....-
......
......
......
......
......
......
.**...
.-*...

Generation = 300, Population = 3.
......
-.....
......
.....-
......
......
......
......
......
......
.**...
.-*...

Generation = 350, Population = 3.
......
-.....
......
.....-
......
......
......
......
......
......
.**...
.-*...

Generation = 400, Population = 3.
......
-.....
......
.....-
......
......
......
......
......
......
.**...
.-*...

*** Life<Cell> 12x6 ***

Generation = 0, Population = 54.
00-000
--0000
00000-
000000
000-00
000000
--00-0
00--00
00-00-
--0000
000---
0-0000

Generation = 50, Population = 3.
.**...
--*...
......
......
......
......
......
......
......
......
......
......

Generation = 100, Population = 3.
.**...
--*...
......
......
......
......
......
......
......
......
......
......

Generation = 150, Population = 3.
.**...
--*...
......
......
......
......
......
......
......
......
......
......

Generation = 200, Population = 3.
.**...
--*...
......
......
......
......
......
......
......
......
......
......

Generation = 250, Population = 3.
.**...
--*...
......
......
......
......
......
......
......
......
......
......

Generation = 300, Population = 3.
.**...
--*...
......
......
......
......
......
......
......
......
......
......

Generation = 350, Population = 3.
.**...
--*...
......
......
......
......
......
......
......
......
......
......

Generation = 400, Population = 3.
.**...
--*...
......
......
......
......
......
......
......
......
......
......

*** Life<Cell> 12x6 ***

Generation = 0, Population = 51.
0-0-00
0---00
00-000
---0-0
0-0000
00-000
000000
000-0-
00-0--
000000
00---0
-00000

Generation = 50, Population = 0.
...-..
......
......
......
......
......
......
......
......
......
-.....
.-....

Generation = 100, Population = 0.
...-..
......
......
......
......
......
......
......
......
......
-.....
.-....

Generation = 150, Population = 0.
...-..
......
......
......
......
......
......
......
......
......
-.....
.-....

Generation = 200, Population = 0.
...-..
......
......
......
......
......
......
......
......
......
-.....
.-....

Generation = 250, Population = 0.
...-..
......
......
......
......
......
......
......
......
......
-.....
.-....

Generation = 300, Population = 0.
...-..
......
......
......
......
......
......
......
......
......
-.....
.-....

Generation = 350, Population = 0.
...-..
......
......
......
......
......
......
......
......
......
-.....
.-....

Generation = 400, Population = 0.
...-..
......
......
......
......
......
......
......
......
......
-.....
.-....

*** Life<Cell> 12x6 ***

Generation = 0, Population = 53.
0-00-0
0-0-00
000-0-
00-000
00-000
-0000-
000-00
0000--
-00000
-0-000
000-00
00-0-0

Generation = 50, Population = 0.
..-...
......
.....-
......
....-.
......
......
-.....
......
....-.
......
......

Generation = 100, Population = 0.
..-...
......
.....-
......
....-.
......
......
-.....
......
....-.
......
......

Generation = 150, Population = 0.
..-...
......
.....-
......
....-.
......
......
-.....
......
....-.
......
......

Generation = 200, Population = 0.
..-...
......
.....-
......
....-.
......
......
-.....
......
....-.
......
......

Generation = 250, Population = 0.
..-...
......
.....-
......
....-.
......
......
-.....
......
....-.
......
......

Generation = 300, Population = 0.
..-...
......
.....-
......
....-.
......
......
-.....
......
....-.
......
......

Generation = 350, Population = 0.
..-...
......
.....-
......
....-.
......
......
-.....
......
....-.
......
......

Generation = 400, Population = 0.
..-...
......
.....-
......
....-.
......
......
-.....
......
....-.
......
......

*** Life<Cell> 12x6 ***

Generation = 0, Population = 52.
000000
000000
-00-00
000000
--0---
0-0000
-0000-
0-0--0
-000-0
0000-0
-00-0-
0000-0

Generation = 50, Population = 22.
..**..
.1***.
.*...*
...*.*
..***.
......
*.....
......
.*....
.**...
.*.*..
.***..

Generation = 100, Population = 4.
......
.-....
......
......
......
......
......
......
......
.**...
.**...
......

Generation = 150, Population = 4.
......
.-....
......
......
......
......
......
......
......
.**...
.**...
......

Generation = 200, Population = 4.
......
.-....
......
......
......
......
......
......
......
.**...
.**...
......

Generation = 250, Population = 4.
......
.-....
......
......
......
......
......
......
......
.**...
.**...
......

Generation = 300, Population = 4.
......
.-....
......
......
......
......
......
......
......
.**...
.**...
......

Generation = 350, Population = 4.
......
.-....
......
......
......
......
......
......
......
.**...
.**...
......

Generation = 400, Population = 4.
......
.-....
......
......
......
......
......
......
......
.**...
.**...
......

*** Life<Cell> 12x6 ***

Generation = 0, Population = 55.
00-000
000000
0-00-0
0-00--
0-0000
0-00-0
000000
-00-00
0000-0
0-00-0
0000-0
000--0

Generation = 50, Population = 4.
......
......
......
....**
....**
......
......
......
......
......
.....-
-.....

Generation = 100, Population = 4.
......
......
......
....**
....**
......
......
......
......
......
.....-
-.....

Generation = 150, Population = 4.
......
......
......
....**
....**
......
......
......
......
......
.....-
-.....

Generation = 200, Population = 4.
......
......
......
....**
....**
......
......
......
......
......
.....-
-.....

Generation = 250, Population = 4.
......
......
......
....**
....**
......
......
......
......
......
.....-
-.....

Generation = 300, Population = 4.
......
......
......
....**
....**
......
......
......
......
......
.....-
-.....

Generation = 350, Population = 4.
......
......
......
....**
....**
......
......
......
......
......
.....-
-.....

Generation = 400, Population = 4.
......
......
......
....**
....**
......
......
......
......
......
.....-
-.....

*** Life<Cell> 12x6 ***

Generation = 0, Population = 53.
00---0
000000
000--0
000-00
00-00-
0000-0
-0-0-0
000000
0--000
000000
0---00
-00-00

Generation = 50, Population = 0.
......
......
.....-
......
......
......
......
......
...-..
......
......
......

Generation = 100, Population = 0.
......
......
.....-
......
......
......
......
......
...-..
......
......
......

Generation = 150, Population = 0.
......
......
.....-
......
......
......
......
......
...-..
......
......
......

Generation = 200, Population = 0.
......
......
.....-
......
......
......
......
......
...-..
......
......
......

Generation = 250, Population = 0.
......
......
.....-
......
......
......
......
......
...-..
......
......
......

Generation = 300, Population = 0.
......
......
.....-
......
......
......
......
......
...-..
......
......
......

Generation = 350, Population = 0.
......
......
.....-
......
......
......
......
......
...-..
......
......
......

Generation = 400, Population = 0.
......
......
.....-
......
......
......
......
......
...-..
......
......
......
