*** Life<ConwayCell> 22x50 ***

Generation = 0, Population = 140.
.......*.*............*.......*........*..........
............*......*.........*.......*....*.......
*.................................................
**...*....*....*.*....*.............*...*....*....
..**.*.**....*..*...........*.........*...*.*.....
.......**.............*.....*.*..*...........*....
...*.................*...*.....*......*.*.........
.......*...............*..........*..*....**......
...*....*..*.........*............................
................*..*...*..*..*..........*.........
...*..**..*..*..............................*.....
..*........*........*....*..*.*.........*.........
.............................*.............*......
....................*...*.*...*....*....*.........
...*...***...*...*.*.*......**..***...*.........*.
.*.**.*.....................................*.....
...*............*..*....*..*.......*.............*
...............*........*..*....*...**...**.*.....
........*.............*.*.....*..........*....*...
......*.........*............*........*......*....
...**.*.............*..........*......*...........
..........*.........*.....*..............**.......

*** Life<ConwayCell> 16x37 ***

Generation = 0, Population = 144.
*.....**........*..*.....*..*..***...
........*.........*.*........*...*..*
...*........*..**..*.........*.*.....
*.*.***....*.....**....*..*....*...*.
.*..*..*.......*.*..............*...*
*.*.****..**.**...*.*..**......*.*.*.
**..**.**........*.*..*......*.......
**.*.*.**..........*...*.......**.*..
.*..*..*....*..*....*.....*...***..**
....*......*....................*....
*...**..................*.....**..*.*
**....*....*......................*..
.*.............*.**....*...**.*.*....
.....*.***........*.....*...*....**..
.......*.*.....*....*.*.*.*.....*....
...*....**.**.....**...*.*........*..

Generation = 9, Population = 88.
...***........**.....................
...*.*........***.*..*...............
...***.........**.*...*........*.....
.....................*.........*.**..
..........*.....*...*..**.........*..
.........*...*..*.*.*....*.....*.....
.........*..**...........*.....*....*
..........**.*........***.......*...*
.................................***.
......**.............................
**....**.............................
*.......*............................
.*.***.**.................**....*..*.
...**..*.................*.*...*...*.
.....***..................*.....*.*..
.....**..........................*...

Generation = 18, Population = 93.
..*...*..............................
.**...**.....***.....................
**.....**......*.....................
.**...***.**.........................
..******.*.*.*.*...*.................
...***..*.....***.***................
....*..*..*........*...*.............
.......*.......**.....*.*......****..
.....**...*..........*...*.........*.
....*.................*.*......*....*
**..*.....*............*........**.*.
**..*.....*.......................*..
.....*...*................**.........
......***................*.*.....*...
..........................*.....*.*..
.....................................

*** Life<ConwayCell> 49x28 ***

Generation = 0, Population = 100.
.................*...*......
.......*............*.......
...*.......*................
................*...........
..........................*.
........................**..
............................
.....*.................*....
.*.........*.........*......
........*..*................
..........*.*...............
..............*.............
....**.....*................
.........*...*..............
..................*.........
............................
................*...........
.......*.....*..........*...
....*....*..................
....*.......................
............*...*....*..*...
*.......................*...
............................
..........*..*..*...........
.....................*.....*
.......*.*..................
*...*..*..................*.
......................*.....
*.*...*...............*.....
...*..*.........*.....*.....
...*..*.....................
.................*..........
......*.................*...
.........*......*...........
...*.*....*.................
.*............*.**.....*....
....*.*......*.*............
......*.....................
...*...........*............
.....*......*...............
............................
.........*..................
....*.**....................
...........*................
......................*.....
.*..*.*....*..............*.
........*....*..............
...........................*
....*......*..*.............

Generation = 15, Population = 24.
............................
............................
............................
............................
............................
............................
..........***...............
............................
........*.....*.............
........*.....*.............
........*.....*.............
............................
..........***...............
............................
............................
............................
............................
............................
............................
............................
............................
............................
............................
............................
............................
............................
............................
............................
.....................***....
.....***....................
............................
............................
............................
............................
.....*......................
....*.*.....................
....*.*.....................
.....*......................
............................
............................
............................
............................
............................
............................
............................
............................
............................
............................
............................

*** Life<ConwayCell> 23x48 ***

Generation = 0, Population = 72.
..**.......*........*..................*.....*..
......................*.........................
..........................*.....................
..*.............................................
....................................*....*......
.....................*..***...................*.
..........*..*..............*....*..............
.....................*...........*..............
...*.......................*............*.......
*.........*...........................*.........
......................*....*............*.......
...................*....*.......*...........*...
.............*......**....*.*........*.**.......
...................*..................*.........
.....................*...*..............*.......
..............................*...*.*......*....
.............................*.........*...*....
............*...........*.......................
.............*.......*.*..........*.*...*.......
............*.*.......................*.........
.........*.....................................*
.................................*..............
................*.............*.*...............

*** Life<ConwayCell> 38x3 ***

Generation = 0, Population = 57.
*..
*.*
.*.
..*
***
.**
**.
.**
.**
.**
*..
.*.
...
***
..*
..*
**.
...
**.
...
.**
..*
.**
.**
***
**.
.**
.**
...
..*
*.*
.**
.*.
**.
*.*
...
...
*.*

Generation = 3, Population = 20.
...
...
*.*
*.*
.*.
...
...
...
...
...
...
...
...
.**
..*
.**
...
...
...
.**
.**
...
...
...
...
...
...
.*.
*.*
.*.
.**
...
...
...
...
...
...
...

Generation = 6, Population = 7.
...
...
...
...
...
...
...
...
...
...
...
...
...
...
...
...
...
...
...
.**
.**
...
...
...
...
...
...
...
*..
*..
.*.
...
...
...
...
...
...
...

Generation = 9, Population = 4.
...
...
...
...
...
...
...
...
...
...
...
...
...
...
...
...
...
...
...
.**
.**
...
...
...
...
...
...
...
...
...
...
...
...
...
...
...
...
...

Generation = 12, Population = 4.
...
...
...
...
...
...
...
...
...
...
...
...
...
...
...
...
...
...
...
.**
.**
...
...
...
...
...
...
...
...
...
...
...
...
...
...
...
...
...

Generation = 15, Population = 4.
...
...
...
...
...
...
...
...
...
...
...
...
...
...
...
...
...
...
...
.**
.**
...
...
...
...
...
...
...
...
...
...
...
...
...
...
...
...
...

*** Life<ConwayCell> 20x15 ***

Generation = 0, Population = 45.
...*.*.*.*.*.*.
....*.....*.*..
....*..........
...............
...**..........
...............
...........*...
..........*....
...............
*.......*......
...........**..
.*...........*.
.....*...*.....
..*...*.*...*..
.......*.......
....**.........
..*.....*.....*
.....*.**.*.**.
..*...*...*...*
.*.*......*....

Generation = 1, Population = 39.
....*.....***..
...***....***..
...............
...**..........
...............
...............
...............
...............
...............
...............
............*..
............*..
...............
......***......
.....***.......
...............
....******...*.
......***..*.**
..*...**..*..*.
..*............

Generation = 2, Population = 31.
...***....*.*..
...***....*.*..
.....*.....*...
...............
...............
...............
...............
...............
...............
...............
...............
...............
.......*.......
.....*..*......
.....*..*......
....*..........
.....*...*..***
..........*..**
......*.*...***
...............

Generation = 3, Population = 23.
...*.*.........
...*..*...*.*..
.....*.....*...
...............
...............
...............
...............
...............
...............
...............
...............
...............
...............
......***......
....**.........
....**.......*.
............*.*
.........*.*...
............*.*
.............*.

*** Life<ConwayCell> 3x18 ***

Generation = 0, Population = 18.
.*.....**...**.**.
.*...**....*...*..
.*...*...***....*.

Generation = 1, Population = 21.
......**....*.***.
***..*****.*..**..
.....**...**......

Generation = 2, Population = 19.
.*...*.......**.*.
.*......**.****.*.
.*...*..****......

Generation = 3, Population = 10.
..............*...
***.....*..*..*...
........*..*.*....

Generation = 4, Population = 7.
.*................
.*..........***...
.*..........*.....

*** Life<ConwayCell> 26x10 ***

Generation = 0, Population = 15.
..........
.....*....
..........
..........
.......*.*
..........
.....*...*
..*.......
..........
..........
..........
.*....*...
..........
..........
..........
..........
..........
..........
....*....*
.**.......
..........
..........
..*......*
..........
.......*..
..........

*** Life<ConwayCell> 13x47 ***

Generation = 0, Population = 95.
.*........*........................*.*...*.....
.........**......*....*..*......*......*.**.*..
...........**..*.*.*..*......*........*.**.*.*.
**.*.*.............*.....*.......*........*....
*.......**.......*......*.........*..**.....*..
*............*..*...*..*......*....*.....*...*.
..............*..*...........**...*...........*
........*......*...............*........*......
.............*........*...*....**..*...........
.*...................*.............***.........
.................*..*..*.........*.............
......**.....*..**...*..........*..*....*...*..
........................*..*....*.......***..*.

*** Life<ConwayCell> 8x33 ***

Generation = 0, Population = 52.
.*.**.**....*..*.......*...**....
.........................*..*....
**.....*........*......*.....*..*
.*.*..*...*.*......**....*.......
.....*.*.....*.*.........*..*...*
.......**.*.............*.*...**.
........**.......*.*..*..*.*..*..
...*......................*.....*

Generation = 3, Population = 39.
.*...............................
.**.....................*.**.*...
..**...................*.*..*....
.**...................*...**.....
.*....**..................**..*..
......*................**......**
......*.**...............*.....*.
........*.................*****..

Generation = 6, Population = 43.
.**......................*..*....
.*.**...................**...*...
...**.................***....*...
.*.*.**....................**.**.
.**.**.**...................****.
........*.....................*.*
.....**..*....................**.
...............................*.

Generation = 9, Population = 49.
.*.*....................**.......
.*.*...................*..*****..
...*.***..............**.*...**..
.*....***...............**...***.
.*.......*................***..**
.**..**.**......................*
........*.....................*.*
..............................**.

*** Life<ConwayCell> 35x9 ***

Generation = 0, Population = 88.
.....**.*
......*.*
.........
...**....
.*..*..*.
.......**
*.**..**.
....**...
....**.*.
.*.......
.....*...
*...*.*..
*...*....
**.......
**...*..*
......*.*
...*.*...
*.*......
*....**..
*......*.
..*.*....
...****..
..**.****
........*
.*.......
*..*.***.
...*.*..*
......*..
..*..*.*.
*..*.****
..*......
..*....**
...*.....
.*..*...*
.*.....*.

*** Life<ConwayCell> 10x10 ***

Generation = 0, Population = 42.
*...***.*.
........**
*.***..**.
....*...*.
...*..**.*
*.*..*.*.*
.*.....*.*
*..*...*.*
*.**...***
*...*.**.*

Generation = 1, Population = 45.
.....*.***
.*....*..*
...**..*..
..*.***..*
...*****.*
.**....*.*
***....*.*
*..*..**.*
*.***....*
.*.*..**.*

Generation = 2, Population = 39.
......****
....***..*
..***..**.
..*.......
.*.....*.*
*...**.*.*
*..*...*.*
*...*.**.*
*...**...*
.*.**...*.

Generation = 3, Population = 41.
......****
....*....*
..*.*.***.
.**....*..
.*....*...
**..*..*.*
**.*...*.*
**.**.**.*
**....**.*
...***....

Generation = 4, Population = 35.
.......***
...*.....*
.**..****.
.***.*..*.
......***.
......**..
...*.*.*.*
...***...*
**.....*..
....***...

Generation = 5, Population = 28.
........**
..*......*
.*...*****
.*.***...*
..*..*..*.
.....*....
...*.*.*..
..**.*....
...*......
.....**...
